…
    ## See spec(...) for full column specifications.

``` r
# Show the first few lines of the data and the dimensions
nh
```

    ## # A tibble: 5,000 x 32
    ##       id Gender   Age Race    Education    MaritalStatus RelationshipStat…
    ##    <int> <chr>  <int> <chr>   <chr>        <chr>         <chr>            
    ##  1 62163 male      14 Asian   <NA>         <NA>          <NA>             
    ##  2 62172 female    43 Black   High School  NeverMarried  Single           
    ##  3 62174 male      80 White   College Grad Married       Committed        
    ##  4 62174 male      80 White   College Grad Married       Committed        
    ##  5 62175 male       5 White   <NA>         <NA>          <NA>             
    ##  6 62176 female    34 White   College Grad Married       Committed        
    ##  7 62178 male      80 White   High School  Widowed       Single           
    ##  8 62180 male      35 White   College Grad Married       Committed        
    ##  9 62186 female    17 Black   <NA>         <NA>          <NA>             
    ## 10 62190 female    15 Mexican <NA>         <NA>          <NA>             
    ## # ... with 4,990 more rows, and 25 more variables: Insured <chr>,
    ## #   Income <int>, Poverty <dbl>, HomeRooms <int>, HomeOwn <chr>,
    ## #   Work <chr>, Weight <dbl>, Height <dbl>, BMI <dbl>, Pulse <int>,
    ## #   BPSys <int>, BPDia <int>, Testosterone <dbl>, HDLChol <dbl>,
    ## #   TotChol <dbl>, Diabetes <chr>, DiabetesAge <int>, nPregnancies <int>,
    ## #   nBabies <int>, SleepHrsNight <int>, PhysActive <chr>,
    ## #   PhysActiveDays <int>, AlcoholDay <int>, AlcoholYear <int>,
    ## #   SmokingStatus <chr>
``` r
# Optionally bring up data in a viewer window.
# View(nh)
```

This particular excerpt has 5000 observations of 32 variables. We know from our lesson this morning that this dataset contains both children and adults. For us to do analyses with these data, let's focus on adults only.

``` r
# Create adults only dataset
nha <- nh %>%
  filter(Age >= 18)
nha
```

    ## # A tibble: 3,707 x 32
    ##       id Gender   Age Race  Education    MaritalStatus RelationshipStatus
    ##    <int> <chr>  <int> <chr> <chr>        <chr>         <chr>             
    ##  1 62172 female    43 Black High School  NeverMarried  Single            
    ##  2 62174 male      80 White College Grad Married       Committed         
    ##  3 62174 male      80 White College Grad Married       Committed         
    ##  4 62176 female    34 White College Grad Married       Committed         
    ##  5 62178 male      80 White High School  Widowed       Single            
    ##  6 62180 male      35 White College Grad Married       Committed         
    ##  7 62199 male      57 White College Grad LivePartner   Committed         
    ##  8 62199 male      57 White College Grad LivePartner   Committed         
    ##  9 62199 male      57 White College Grad LivePartner   Committed         
    ## 10 62199 male      57 White College Grad LivePartner   Committed         
    ## # ... with 3,697 more rows, and 25 more variables: Insured <chr>,
    ## #   Income <int>, Poverty <dbl>, HomeRooms <int>, HomeOwn <chr>,
    ## #   Work <chr>, Weight <dbl>, Height <dbl>, BMI <dbl>, Pulse <int>,
    ## #   BPSys <int>, BPDia <int>, Testosterone <dbl>, HDLChol <dbl>,
    ## #   TotChol <dbl>, Diabetes <chr>, DiabetesAge <int>, nPregnancies <int>,
    ## #   nBabies <int>, SleepHrsNight <int>, PhysActive <chr>,
    ## #   PhysActiveDays <int>, AlcoholDay <int>, AlcoholYear <int>,
    ## #   SmokingStatus <chr>
…
