…
    ## See spec(...) for full column specifications.

``` r
# Show the first few lines of the data and the dimensions
nh
```

    ## # A tibble: 5,000 x 32
    ##       id Gender   Age Race    Education    MaritalStatus RelationshipStat…
    ##    <int> <chr>  <int> <chr>   <chr>        <chr>         <chr>            
    ##  1 62163 male      14 Asian   <NA>         <NA>          <NA>             
    ##  2 62172 female    43 Black   High School  NeverMarried  Single           
    ##  3 62174 male      80 White   College Grad Married       Committed        
    ##  4 62174 male      80 White   College Grad Married       Committed        
    ##  5 62175 male       5 White   <NA>         <NA>          <NA>             
    ##  6 62176 female    34 White   College Grad Married       Committed        
    ##  7 62178 male      80 White   High School  Widowed       Single           
    ##  8 62180 male      35 White   College Grad Married       Committed        
    ##  9 62186 female    17 Black   <NA>         <NA>          <NA>             
    ## 10 62190 female    15 Mexican <NA>         <NA>          <NA>             
    ## # ... with 4,990 more rows, and 25 more variables: Insured <chr>,
    ## #   Income <int>, Poverty <dbl>, HomeRooms <int>, HomeOwn <chr>,
    ## #   Work <chr>, Weight <dbl>, Height <dbl>, BMI <dbl>, Pulse <int>,
    ## #   BPSys <int>, BPDia <int>, Testosterone <dbl>, HDLChol <dbl>,
    ## #   TotChol <dbl>, Diabetes <chr>, DiabetesAge <int>, nPregnancies <int>,
    ## #   nBabies <int>, SleepHrsNight <int>, PhysActive <chr>,
    ## #   PhysActiveDays <int>, AlcoholDay <int>, AlcoholYear <int>,
    ## #   SmokingStatus <chr>
…
-   `==`: Equal to
-   `!=`: Not equal to
-   `>`, `>=`: Greater than, greater than or equal to
-   `<`, `<=`: Less than, less than or equal to

If you want to satisfy *all* of multiple conditions, you can use the "and" operator, `&`. The "or" operator `|` (the pipe character, usually shift-backslash) will return a subset that meet *any* of the conditions.

Let's use filter to return rows where the person was elderly (defined as &gt;= 80 years old)

``` r
filter(nh, Age >= 80)
```

    ## # A tibble: 177 x 32
    ##       id Gender   Age Race    Education    MaritalStatus RelationshipStat…
    ##    <int> <chr>  <int> <chr>   <chr>        <chr>         <chr>            
    ##  1 62174 male      80 White   College Grad Married       Committed        
    ##  2 62174 male      80 White   College Grad Married       Committed        
    ##  3 62178 male      80 White   High School  Widowed       Single           
    ##  4 62256 male      80 White   8th Grade    Married       Committed        
    ##  5 62279 male      80 Black   9 - 11th Gr… Widowed       Single           
    ##  6 62279 male      80 Black   9 - 11th Gr… Widowed       Single           
    ##  7 62366 male      80 White   High School  Married       Committed        
    ##  8 62368 female    80 Hispan… 8th Grade    Widowed       Single           
    ##  9 62418 male      80 White   8th Grade    Widowed       Single           
    ## 10 62418 male      80 White   8th Grade    Widowed       Single           
    ## # ... with 167 more rows, and 25 more variables: Insured <chr>,
    ## #   Income <int>, Poverty <dbl>, HomeRooms <int>, HomeOwn <chr>,
    ## #   Work <chr>, Weight <dbl>, Height <dbl>, BMI <dbl>, Pulse <int>,
    ## #   BPSys <int>, BPDia <int>, Testosterone <dbl>, HDLChol <dbl>,
    ## #   TotChol <dbl>, Diabetes <chr>, DiabetesAge <int>, nPregnancies <int>,
    ## #   nBabies <int>, SleepHrsNight <int>, PhysActive <chr>,
    ## #   PhysActiveDays <int>, AlcoholDay <int>, AlcoholYear <int>,
    ## #   SmokingStatus <chr>
…
Now let's use the pipe operator with filter

``` r
filter(nh, Age >= 80) #without pipe
```

    ## # A tibble: 177 x 32
    ##       id Gender   Age Race    Education    MaritalStatus RelationshipStat…
    ##    <int> <chr>  <int> <chr>   <chr>        <chr>         <chr>            
    ##  1 62174 male      80 White   College Grad Married       Committed        
    ##  2 62174 male      80 White   College Grad Married       Committed        
    ##  3 62178 male      80 White   High School  Widowed       Single           
    ##  4 62256 male      80 White   8th Grade    Married       Committed        
    ##  5 62279 male      80 Black   9 - 11th Gr… Widowed       Single           
    ##  6 62279 male      80 Black   9 - 11th Gr… Widowed       Single           
    ##  7 62366 male      80 White   High School  Married       Committed        
    ##  8 62368 female    80 Hispan… 8th Grade    Widowed       Single           
    ##  9 62418 male      80 White   8th Grade    Widowed       Single           
    ## 10 62418 male      80 White   8th Grade    Widowed       Single           
    ## # ... with 167 more rows, and 25 more variables: Insured <chr>,
    ## #   Income <int>, Poverty <dbl>, HomeRooms <int>, HomeOwn <chr>,
    ## #   Work <chr>, Weight <dbl>, Height <dbl>, BMI <dbl>, Pulse <int>,
    ## #   BPSys <int>, BPDia <int>, Testosterone <dbl>, HDLChol <dbl>,
    ## #   TotChol <dbl>, Diabetes <chr>, DiabetesAge <int>, nPregnancies <int>,
    ## #   nBabies <int>, SleepHrsNight <int>, PhysActive <chr>,
    ## #   PhysActiveDays <int>, AlcoholDay <int>, AlcoholYear <int>,
    ## #   SmokingStatus <chr>

``` r
nh %>% filter(Age >= 80) #pipe!
```

    ## # A tibble: 177 x 32
    ##       id Gender   Age Race    Education    MaritalStatus RelationshipStat…
    ##    <int> <chr>  <int> <chr>   <chr>        <chr>         <chr>            
    ##  1 62174 male      80 White   College Grad Married       Committed        
    ##  2 62174 male      80 White   College Grad Married       Committed        
    ##  3 62178 male      80 White   High School  Widowed       Single           
    ##  4 62256 male      80 White   8th Grade    Married       Committed        
    ##  5 62279 male      80 Black   9 - 11th Gr… Widowed       Single           
    ##  6 62279 male      80 Black   9 - 11th Gr… Widowed       Single           
    ##  7 62366 male      80 White   High School  Married       Committed        
    ##  8 62368 female    80 Hispan… 8th Grade    Widowed       Single           
    ##  9 62418 male      80 White   8th Grade    Widowed       Single           
    ## 10 62418 male      80 White   8th Grade    Widowed       Single           
    ## # ... with 167 more rows, and 25 more variables: Insured <chr>,
    ## #   Income <int>, Poverty <dbl>, HomeRooms <int>, HomeOwn <chr>,
    ## #   Work <chr>, Weight <dbl>, Height <dbl>, BMI <dbl>, Pulse <int>,
    ## #   BPSys <int>, BPDia <int>, Testosterone <dbl>, HDLChol <dbl>,
    ## #   TotChol <dbl>, Diabetes <chr>, DiabetesAge <int>, nPregnancies <int>,
    ## #   nBabies <int>, SleepHrsNight <int>, PhysActive <chr>,
    ## #   PhysActiveDays <int>, AlcoholDay <int>, AlcoholYear <int>,
    ## #   SmokingStatus <chr>
…
#### \*\* EXERCISE 1 ** ** YOUR TURN \*\* A. How many observations are there of children (&lt; 18 years old)? B. How many cases of obese children are there (BMI &gt;= 30)? C. Use `filter()`, `group_by()` and `summarize()` to find the mean BMI by Smoking Status for only Adults who have Diabetes. Do diabetic smokers or non-smokers have higher BMI?

``` r
#A
nh %>% 
  filter(Age < 18)
```

    ## # A tibble: 1,293 x 32
    ##       id Gender   Age Race     Education MaritalStatus RelationshipStatus
    ##    <int> <chr>  <int> <chr>    <chr>     <chr>         <chr>             
    ##  1 62163 male      14 Asian    <NA>      <NA>          <NA>              
    ##  2 62175 male       5 White    <NA>      <NA>          <NA>              
    ##  3 62186 female    17 Black    <NA>      <NA>          <NA>              
    ##  4 62190 female    15 Mexican  <NA>      <NA>          <NA>              
    ##  5 62210 male      15 White    <NA>      <NA>          <NA>              
    ##  6 62219 female     2 Mexican  <NA>      <NA>          <NA>              
    ##  7 62225 female    13 Mexican  <NA>      <NA>          <NA>              
    ##  8 62235 female     2 White    <NA>      <NA>          <NA>              
    ##  9 62241 male       2 Hispanic <NA>      <NA>          <NA>              
    ## 10 62257 female     2 Mexican  <NA>      <NA>          <NA>              
    ## # ... with 1,283 more rows, and 25 more variables: Insured <chr>,
    ## #   Income <int>, Poverty <dbl>, HomeRooms <int>, HomeOwn <chr>,
    ## #   Work <chr>, Weight <dbl>, Height <dbl>, BMI <dbl>, Pulse <int>,
    ## #   BPSys <int>, BPDia <int>, Testosterone <dbl>, HDLChol <dbl>,
    ## #   TotChol <dbl>, Diabetes <chr>, DiabetesAge <int>, nPregnancies <int>,
    ## #   nBabies <int>, SleepHrsNight <int>, PhysActive <chr>,
    ## #   PhysActiveDays <int>, AlcoholDay <int>, AlcoholYear <int>,
    ## #   SmokingStatus <chr>

``` r
#B
nh %>% 
  filter(Age < 18 & BMI >= 30)
```

    ## # A tibble: 65 x 32
    ##       id Gender   Age Race    Education MaritalStatus RelationshipStatus
    ##    <int> <chr>  <int> <chr>   <chr>     <chr>         <chr>             
    ##  1 62285 female    17 White   <NA>      <NA>          <NA>              
    ##  2 62285 female    17 White   <NA>      <NA>          <NA>              
    ##  3 62313 male       7 Mexican <NA>      <NA>          <NA>              
    ##  4 62810 female    15 White   <NA>      <NA>          <NA>              
    ##  5 62870 male      13 Mexican <NA>      <NA>          <NA>              
    ##  6 62879 female    14 Black   <NA>      <NA>          <NA>              
    ##  7 62950 female    16 White   <NA>      <NA>          <NA>              
    ##  8 62950 female    16 White   <NA>      <NA>          <NA>              
    ##  9 63072 female    12 White   <NA>      <NA>          <NA>              
    ## 10 63350 male      16 White   <NA>      <NA>          <NA>              
    ## # ... with 55 more rows, and 25 more variables: Insured <chr>,
    ## #   Income <int>, Poverty <dbl>, HomeRooms <int>, HomeOwn <chr>,
    ## #   Work <chr>, Weight <dbl>, Height <dbl>, BMI <dbl>, Pulse <int>,
    ## #   BPSys <int>, BPDia <int>, Testosterone <dbl>, HDLChol <dbl>,
    ## #   TotChol <dbl>, Diabetes <chr>, DiabetesAge <int>, nPregnancies <int>,
    ## #   nBabies <int>, SleepHrsNight <int>, PhysActive <chr>,
    ## #   PhysActiveDays <int>, AlcoholDay <int>, AlcoholYear <int>,
    ## #   SmokingStatus <chr>
…
